[0.000000] (-) TimerEvent: {}
[0.000136] (esp32_micros_moveo) JobQueued: {'identifier': 'esp32_micros_moveo', 'dependencies': OrderedDict()}
[0.000182] (moveo_ros2_urdf) JobQueued: {'identifier': 'moveo_ros2_urdf', 'dependencies': OrderedDict()}
[0.000500] (esp32_micros_moveo) JobStarted: {'identifier': 'esp32_micros_moveo'}
[0.010510] (moveo_ros2_urdf) JobStarted: {'identifier': 'moveo_ros2_urdf'}
[0.021529] (esp32_micros_moveo) JobProgress: {'identifier': 'esp32_micros_moveo', 'progress': 'cmake'}
[0.021760] (esp32_micros_moveo) Command: {'cmd': ['/usr/bin/cmake', '/home/bblaze/ws_ros2/src/moveo_ros2/esp32_microros_moveo', '-DCMAKE_INSTALL_PREFIX=/home/bblaze/ws_ros2/src/moveo_ros2/install/esp32_micros_moveo'], 'cwd': '/home/bblaze/ws_ros2/src/moveo_ros2/build/esp32_micros_moveo', 'env': OrderedDict([('GJS_DEBUG_TOPICS', 'JS ERROR;JS LOG'), ('LESSOPEN', '| /usr/bin/lesspipe %s'), ('USER', 'bblaze'), ('SSH_AGENT_PID', '10443'), ('XDG_SESSION_TYPE', 'x11'), ('IDF_TOOLS_INSTALL_CMD', '/home/bblaze/esp/esp-idf/install.sh'), ('SHLVL', '1'), ('LD_LIBRARY_PATH', '/home/bblaze/ws_ros2/install/warehouse_ros_mongo/lib:/home/bblaze/ws_ros2/install/moveit_ros_visualization/lib:/home/bblaze/ws_ros2/install/moveit_ros_benchmarks/lib:/home/bblaze/ws_ros2/install/moveit_ros_warehouse/lib:/home/bblaze/ws_ros2/install/warehouse_ros/lib:/home/bblaze/ws_ros2/install/transmission_interface/lib:/home/bblaze/ws_ros2/install/test_robot_hardware/lib:/home/bblaze/ws_ros2/install/moveit_simple_controller_manager/lib:/home/bblaze/ws_ros2/install/moveit_servo/lib:/home/bblaze/ws_ros2/install/moveit_ros_robot_interaction/lib:/home/bblaze/ws_ros2/install/moveit_ros_planning_interface/lib:/home/bblaze/ws_ros2/install/moveit_ros_move_group/lib:/home/bblaze/ws_ros2/install/moveit_planners_ompl/lib:/home/bblaze/ws_ros2/install/moveit_fake_controller_manager/lib:/home/bblaze/ws_ros2/install/moveit_ros_planning/lib:/home/bblaze/ws_ros2/install/moveit_ros_occupancy_map_monitor/lib:/home/bblaze/ws_ros2/install/moveit_kinematics/lib:/home/bblaze/ws_ros2/install/moveit_core/lib:/home/bblaze/ws_ros2/install/srdfdom/lib:/home/bblaze/ws_ros2/install/moveit_msgs/lib:/home/bblaze/ws_ros2/install/joint_trajectory_controller/lib:/home/bblaze/ws_ros2/install/joint_state_controller/lib:/home/bblaze/ws_ros2/install/diff_drive_controller/lib:/home/bblaze/ws_ros2/install/controller_manager/lib:/home/bblaze/ws_ros2/install/controller_interface/lib:/home/bblaze/ws_ros2/install/hardware_interface/lib:/home/bblaze/ws_ros2/install/geometric_shapes/lib'), ('HOME', '/home/bblaze'), ('OLDPWD', '/home/bblaze/ws_ros2'), ('DESKTOP_SESSION', 'ubuntu'), ('GNOME_SHELL_SESSION_MODE', 'ubuntu'), ('GTK_MODULES', 'gail:atk-bridge'), ('MANAGERPID', '6251'), ('DBUS_SESSION_BUS_ADDRESS', 'unix:path=/run/user/1000/bus'), ('COLORTERM', 'truecolor'), ('OPENOCD_SCRIPTS', '/home/bblaze/.espressif/tools/openocd-esp32/v0.10.0-esp32-20200709/openocd-esp32/share/openocd/scripts'), ('MANDATORY_PATH', '/usr/share/gconf/ubuntu.mandatory.path'), ('IM_CONFIG_PHASE', '1'), ('COLCON_PREFIX_PATH', '/home/bblaze/ws_ros2/install'), ('LOGNAME', 'bblaze'), ('JOURNAL_STREAM', '9:37365527'), ('_', '/usr/bin/colcon'), ('XDG_SESSION_CLASS', 'user'), ('DEFAULTS_PATH', '/usr/share/gconf/ubuntu.default.path'), ('USERNAME', 'bblaze'), ('TERM', 'xterm-256color'), ('GNOME_DESKTOP_SESSION_ID', 'this-is-deprecated'), ('IDF_PATH', '/home/bblaze/esp/esp-idf'), ('WINDOWPATH', '2'), ('PATH', '/home/bblaze/ws_ros2/install/moveit_core/bin:/home/bblaze/esp/esp-idf/components/esptool_py/esptool:/home/bblaze/esp/esp-idf/components/espcoredump:/home/bblaze/esp/esp-idf/components/partition_table/:/home/bblaze/.espressif/tools/xtensa-esp32-elf/esp-2020r3-8.4.0/xtensa-esp32-elf/bin:/home/bblaze/.espressif/tools/xtensa-esp32s2-elf/esp-2020r3-8.4.0/xtensa-esp32s2-elf/bin:/home/bblaze/.espressif/tools/esp32ulp-elf/2.28.51-esp-20191205/esp32ulp-elf-binutils/bin:/home/bblaze/.espressif/tools/esp32s2ulp-elf/2.28.51-esp-20191205/esp32s2ulp-elf-binutils/bin:/home/bblaze/.espressif/tools/openocd-esp32/v0.10.0-esp32-20200709/openocd-esp32/bin:/home/bblaze/.espressif/python_env/idf4.1_py3.8_env/bin:/home/bblaze/esp/esp-idf/tools:/home/bblaze/.local/bin:/usr/local/sbin:/usr/local/bin:/usr/sbin:/usr/bin:/sbin:/bin:/usr/games:/usr/local/games:/snap/bin'), ('SESSION_MANAGER', 'local/kube-worker-gpu:@/tmp/.ICE-unix/10747,unix/kube-worker-gpu:/tmp/.ICE-unix/10747'), ('INVOCATION_ID', '7ee7b154b4f94e419571f4663faaf917'), ('XDG_MENU_PREFIX', 'gnome-'), ('GNOME_TERMINAL_SCREEN', '/org/gnome/Terminal/screen/66903ab8_d732_4e22_a2e9_7ed7526b2682'), ('XDG_RUNTIME_DIR', '/run/user/1000'), ('DISPLAY', ':1'), ('LANG', 'en_US.UTF-8'), ('XDG_CURRENT_DESKTOP', 'ubuntu:GNOME'), ('XMODIFIERS', '@im=ibus'), ('XDG_SESSION_DESKTOP', 'ubuntu'), ('XAUTHORITY', '/run/user/1000/gdm/Xauthority'), ('LS_COLORS', 'rs=0:di=01;34:ln=01;36:mh=00:pi=40;33:so=01;35:do=01;35:bd=40;33;01:cd=40;33;01:or=40;31;01:mi=00:su=37;41:sg=30;43:ca=30;41:tw=30;42:ow=34;42:st=37;44:ex=01;32:*.tar=01;31:*.tgz=01;31:*.arc=01;31:*.arj=01;31:*.taz=01;31:*.lha=01;31:*.lz4=01;31:*.lzh=01;31:*.lzma=01;31:*.tlz=01;31:*.txz=01;31:*.tzo=01;31:*.t7z=01;31:*.zip=01;31:*.z=01;31:*.dz=01;31:*.gz=01;31:*.lrz=01;31:*.lz=01;31:*.lzo=01;31:*.xz=01;31:*.zst=01;31:*.tzst=01;31:*.bz2=01;31:*.bz=01;31:*.tbz=01;31:*.tbz2=01;31:*.tz=01;31:*.deb=01;31:*.rpm=01;31:*.jar=01;31:*.war=01;31:*.ear=01;31:*.sar=01;31:*.rar=01;31:*.alz=01;31:*.ace=01;31:*.zoo=01;31:*.cpio=01;31:*.7z=01;31:*.rz=01;31:*.cab=01;31:*.wim=01;31:*.swm=01;31:*.dwm=01;31:*.esd=01;31:*.jpg=01;35:*.jpeg=01;35:*.mjpg=01;35:*.mjpeg=01;35:*.gif=01;35:*.bmp=01;35:*.pbm=01;35:*.pgm=01;35:*.ppm=01;35:*.tga=01;35:*.xbm=01;35:*.xpm=01;35:*.tif=01;35:*.tiff=01;35:*.png=01;35:*.svg=01;35:*.svgz=01;35:*.mng=01;35:*.pcx=01;35:*.mov=01;35:*.mpg=01;35:*.mpeg=01;35:*.m2v=01;35:*.mkv=01;35:*.webm=01;35:*.ogm=01;35:*.mp4=01;35:*.m4v=01;35:*.mp4v=01;35:*.vob=01;35:*.qt=01;35:*.nuv=01;35:*.wmv=01;35:*.asf=01;35:*.rm=01;35:*.rmvb=01;35:*.flc=01;35:*.avi=01;35:*.fli=01;35:*.flv=01;35:*.gl=01;35:*.dl=01;35:*.xcf=01;35:*.xwd=01;35:*.yuv=01;35:*.cgm=01;35:*.emf=01;35:*.ogv=01;35:*.ogx=01;35:*.aac=00;36:*.au=00;36:*.flac=00;36:*.m4a=00;36:*.mid=00;36:*.midi=00;36:*.mka=00;36:*.mp3=00;36:*.mpc=00;36:*.ogg=00;36:*.ra=00;36:*.wav=00;36:*.oga=00;36:*.opus=00;36:*.spx=00;36:*.xspf=00;36:'), ('GNOME_TERMINAL_SERVICE', ':1.799'), ('SSH_AUTH_SOCK', '/run/user/1000/keyring/ssh'), ('AMENT_PREFIX_PATH', '/home/bblaze/ws_ros2/install/warehouse_ros_mongo:/home/bblaze/ws_ros2/install/moveit_ros_visualization:/home/bblaze/ws_ros2/install/moveit_ros_benchmarks:/home/bblaze/ws_ros2/install/moveit_ros_warehouse:/home/bblaze/ws_ros2/install/warehouse_ros:/home/bblaze/ws_ros2/install/ros2_control:/home/bblaze/ws_ros2/install/transmission_interface:/home/bblaze/ws_ros2/install/test_robot_hardware:/home/bblaze/ws_ros2/install/run_moveit_cpp:/home/bblaze/ws_ros2/install/run_move_group:/home/bblaze/ws_ros2/install/moveit_servo:/home/bblaze/ws_ros2/install/moveit_ros_robot_interaction:/home/bblaze/ws_ros2/install/moveit_ros_planning_interface:/home/bblaze/ws_ros2/install/moveit_ros_move_group:/home/bblaze/ws_ros2/install/moveit_planners_ompl:/home/bblaze/ws_ros2/install/moveit_fake_controller_manager:/home/bblaze/ws_ros2/install/moveit_ros_planning:/home/bblaze/ws_ros2/install/moveit_ros_occupancy_map_monitor:/home/bblaze/ws_ros2/install/moveit_kinematics:/home/bblaze/ws_ros2/install/moveit_core:/home/bblaze/ws_ros2/install/fake_joint_driver:/home/bblaze/ws_ros2/install/ros2_controllers:/home/bblaze/ws_ros2/install/moveo_ros2_urdf:/home/bblaze/ws_ros2/install/moveit_resources:/home/bblaze/ws_ros2/install/moveit_resources_pr2_description:/home/bblaze/ws_ros2/install/moveit_resources_panda_moveit_config:/home/bblaze/ws_ros2/install/moveit_resources_panda_description:/home/bblaze/ws_ros2/install/moveit_resources_fanuc_moveit_config:/home/bblaze/ws_ros2/install/moveit_resources_fanuc_description:/home/bblaze/ws_ros2/install/moveit_msgs:/home/bblaze/ws_ros2/install/moveit_common:/home/bblaze/ws_ros2/install/joint_trajectory_controller:/home/bblaze/ws_ros2/install/joint_state_controller:/home/bblaze/ws_ros2/install/diff_drive_controller:/home/bblaze/ws_ros2/install/controller_manager:/home/bblaze/ws_ros2/install/controller_interface:/home/bblaze/ws_ros2/install/hardware_interface:/home/bblaze/ws_ros2/install/geometric_shapes'), ('SHELL', '/bin/bash'), ('QT_ACCESSIBILITY', '1'), ('IDF_PYTHON_ENV_PATH', '/home/bblaze/.espressif/python_env/idf4.1_py3.8_env'), ('GDMSESSION', 'ubuntu'), ('LESSCLOSE', '/usr/bin/lesspipe %s %s'), ('IDF_TOOLS_EXPORT_CMD', '/home/bblaze/esp/esp-idf/export.sh'), ('GPG_AGENT_INFO', '/run/user/1000/gnupg/S.gpg-agent:0:1'), ('GJS_DEBUG_OUTPUT', 'stderr'), ('QT_IM_MODULE', 'ibus'), ('PWD', '/home/bblaze/ws_ros2/src/moveo_ros2/build/esp32_micros_moveo'), ('XDG_CONFIG_DIRS', '/etc/xdg/xdg-ubuntu:/etc/xdg'), ('XDG_DATA_DIRS', '/usr/share/ubuntu:/usr/local/share/:/usr/share/:/var/lib/snapd/desktop'), ('PYTHONPATH', '/home/bblaze/ws_ros2/install/warehouse_ros_mongo/lib/python3.8/site-packages:/home/bblaze/ws_ros2/install/moveit_msgs/lib/python3.8/site-packages'), ('COLCON', '1'), ('VTE_VERSION', '6003'), ('CMAKE_PREFIX_PATH', '/home/bblaze/ws_ros2/install/warehouse_ros_mongo:/home/bblaze/ws_ros2/install/moveit_ros_visualization:/home/bblaze/ws_ros2/install/moveit_ros_benchmarks:/home/bblaze/ws_ros2/install/moveit_ros_warehouse:/home/bblaze/ws_ros2/install/warehouse_ros:/home/bblaze/ws_ros2/install/ros2_control:/home/bblaze/ws_ros2/install/transmission_interface:/home/bblaze/ws_ros2/install/test_robot_hardware:/home/bblaze/ws_ros2/install/run_moveit_cpp:/home/bblaze/ws_ros2/install/run_move_group:/home/bblaze/ws_ros2/install/moveit_simple_controller_manager:/home/bblaze/ws_ros2/install/moveit_servo:/home/bblaze/ws_ros2/install/moveit_ros_robot_interaction:/home/bblaze/ws_ros2/install/moveit_ros_planning_interface:/home/bblaze/ws_ros2/install/moveit_ros_move_group:/home/bblaze/ws_ros2/install/moveit_planners_ompl:/home/bblaze/ws_ros2/install/moveit_fake_controller_manager:/home/bblaze/ws_ros2/install/moveit_ros_planning:/home/bblaze/ws_ros2/install/moveit_ros_occupancy_map_monitor:/home/bblaze/ws_ros2/install/moveit_kinematics:/home/bblaze/ws_ros2/install/moveit_core:/home/bblaze/ws_ros2/install/srdfdom:/home/bblaze/ws_ros2/install/fake_joint_driver:/home/bblaze/ws_ros2/install/ros2_controllers:/home/bblaze/ws_ros2/install/moveo_ros2_urdf:/home/bblaze/ws_ros2/install/moveo_ros2:/home/bblaze/ws_ros2/install/moveit_resources:/home/bblaze/ws_ros2/install/moveit_resources_pr2_description:/home/bblaze/ws_ros2/install/moveit_resources_panda_moveit_config:/home/bblaze/ws_ros2/install/moveit_resources_panda_description:/home/bblaze/ws_ros2/install/moveit_resources_fanuc_moveit_config:/home/bblaze/ws_ros2/install/moveit_resources_fanuc_description:/home/bblaze/ws_ros2/install/moveit_msgs:/home/bblaze/ws_ros2/install/moveit_common:/home/bblaze/ws_ros2/install/joint_trajectory_controller:/home/bblaze/ws_ros2/install/joint_state_controller:/home/bblaze/ws_ros2/install/diff_drive_controller:/home/bblaze/ws_ros2/install/controller_manager:/home/bblaze/ws_ros2/install/controller_interface:/home/bblaze/ws_ros2/install/hardware_interface:/home/bblaze/ws_ros2/install/geometric_shapes')]), 'shell': False}
[0.026234] (moveo_ros2_urdf) JobProgress: {'identifier': 'moveo_ros2_urdf', 'progress': 'cmake'}
[0.026510] (moveo_ros2_urdf) Command: {'cmd': ['/usr/bin/cmake', '/home/bblaze/ws_ros2/src/moveo_ros2/moveo_ros2_urdf', '-DCMAKE_INSTALL_PREFIX=/home/bblaze/ws_ros2/src/moveo_ros2/install/moveo_ros2_urdf'], 'cwd': '/home/bblaze/ws_ros2/src/moveo_ros2/build/moveo_ros2_urdf', 'env': OrderedDict([('GJS_DEBUG_TOPICS', 'JS ERROR;JS LOG'), ('LESSOPEN', '| /usr/bin/lesspipe %s'), ('USER', 'bblaze'), ('SSH_AGENT_PID', '10443'), ('XDG_SESSION_TYPE', 'x11'), ('IDF_TOOLS_INSTALL_CMD', '/home/bblaze/esp/esp-idf/install.sh'), ('SHLVL', '1'), ('LD_LIBRARY_PATH', '/home/bblaze/ws_ros2/install/warehouse_ros_mongo/lib:/home/bblaze/ws_ros2/install/moveit_ros_visualization/lib:/home/bblaze/ws_ros2/install/moveit_ros_benchmarks/lib:/home/bblaze/ws_ros2/install/moveit_ros_warehouse/lib:/home/bblaze/ws_ros2/install/warehouse_ros/lib:/home/bblaze/ws_ros2/install/transmission_interface/lib:/home/bblaze/ws_ros2/install/test_robot_hardware/lib:/home/bblaze/ws_ros2/install/moveit_simple_controller_manager/lib:/home/bblaze/ws_ros2/install/moveit_servo/lib:/home/bblaze/ws_ros2/install/moveit_ros_robot_interaction/lib:/home/bblaze/ws_ros2/install/moveit_ros_planning_interface/lib:/home/bblaze/ws_ros2/install/moveit_ros_move_group/lib:/home/bblaze/ws_ros2/install/moveit_planners_ompl/lib:/home/bblaze/ws_ros2/install/moveit_fake_controller_manager/lib:/home/bblaze/ws_ros2/install/moveit_ros_planning/lib:/home/bblaze/ws_ros2/install/moveit_ros_occupancy_map_monitor/lib:/home/bblaze/ws_ros2/install/moveit_kinematics/lib:/home/bblaze/ws_ros2/install/moveit_core/lib:/home/bblaze/ws_ros2/install/srdfdom/lib:/home/bblaze/ws_ros2/install/moveit_msgs/lib:/home/bblaze/ws_ros2/install/joint_trajectory_controller/lib:/home/bblaze/ws_ros2/install/joint_state_controller/lib:/home/bblaze/ws_ros2/install/diff_drive_controller/lib:/home/bblaze/ws_ros2/install/controller_manager/lib:/home/bblaze/ws_ros2/install/controller_interface/lib:/home/bblaze/ws_ros2/install/hardware_interface/lib:/home/bblaze/ws_ros2/install/geometric_shapes/lib'), ('HOME', '/home/bblaze'), ('OLDPWD', '/home/bblaze/ws_ros2'), ('DESKTOP_SESSION', 'ubuntu'), ('GNOME_SHELL_SESSION_MODE', 'ubuntu'), ('GTK_MODULES', 'gail:atk-bridge'), ('MANAGERPID', '6251'), ('DBUS_SESSION_BUS_ADDRESS', 'unix:path=/run/user/1000/bus'), ('COLORTERM', 'truecolor'), ('OPENOCD_SCRIPTS', '/home/bblaze/.espressif/tools/openocd-esp32/v0.10.0-esp32-20200709/openocd-esp32/share/openocd/scripts'), ('MANDATORY_PATH', '/usr/share/gconf/ubuntu.mandatory.path'), ('IM_CONFIG_PHASE', '1'), ('COLCON_PREFIX_PATH', '/home/bblaze/ws_ros2/install'), ('LOGNAME', 'bblaze'), ('JOURNAL_STREAM', '9:37365527'), ('_', '/usr/bin/colcon'), ('XDG_SESSION_CLASS', 'user'), ('DEFAULTS_PATH', '/usr/share/gconf/ubuntu.default.path'), ('USERNAME', 'bblaze'), ('TERM', 'xterm-256color'), ('GNOME_DESKTOP_SESSION_ID', 'this-is-deprecated'), ('IDF_PATH', '/home/bblaze/esp/esp-idf'), ('WINDOWPATH', '2'), ('PATH', '/home/bblaze/ws_ros2/install/moveit_core/bin:/home/bblaze/esp/esp-idf/components/esptool_py/esptool:/home/bblaze/esp/esp-idf/components/espcoredump:/home/bblaze/esp/esp-idf/components/partition_table/:/home/bblaze/.espressif/tools/xtensa-esp32-elf/esp-2020r3-8.4.0/xtensa-esp32-elf/bin:/home/bblaze/.espressif/tools/xtensa-esp32s2-elf/esp-2020r3-8.4.0/xtensa-esp32s2-elf/bin:/home/bblaze/.espressif/tools/esp32ulp-elf/2.28.51-esp-20191205/esp32ulp-elf-binutils/bin:/home/bblaze/.espressif/tools/esp32s2ulp-elf/2.28.51-esp-20191205/esp32s2ulp-elf-binutils/bin:/home/bblaze/.espressif/tools/openocd-esp32/v0.10.0-esp32-20200709/openocd-esp32/bin:/home/bblaze/.espressif/python_env/idf4.1_py3.8_env/bin:/home/bblaze/esp/esp-idf/tools:/home/bblaze/.local/bin:/usr/local/sbin:/usr/local/bin:/usr/sbin:/usr/bin:/sbin:/bin:/usr/games:/usr/local/games:/snap/bin'), ('SESSION_MANAGER', 'local/kube-worker-gpu:@/tmp/.ICE-unix/10747,unix/kube-worker-gpu:/tmp/.ICE-unix/10747'), ('INVOCATION_ID', '7ee7b154b4f94e419571f4663faaf917'), ('XDG_MENU_PREFIX', 'gnome-'), ('GNOME_TERMINAL_SCREEN', '/org/gnome/Terminal/screen/66903ab8_d732_4e22_a2e9_7ed7526b2682'), ('XDG_RUNTIME_DIR', '/run/user/1000'), ('DISPLAY', ':1'), ('LANG', 'en_US.UTF-8'), ('XDG_CURRENT_DESKTOP', 'ubuntu:GNOME'), ('XMODIFIERS', '@im=ibus'), ('XDG_SESSION_DESKTOP', 'ubuntu'), ('XAUTHORITY', '/run/user/1000/gdm/Xauthority'), ('LS_COLORS', 'rs=0:di=01;34:ln=01;36:mh=00:pi=40;33:so=01;35:do=01;35:bd=40;33;01:cd=40;33;01:or=40;31;01:mi=00:su=37;41:sg=30;43:ca=30;41:tw=30;42:ow=34;42:st=37;44:ex=01;32:*.tar=01;31:*.tgz=01;31:*.arc=01;31:*.arj=01;31:*.taz=01;31:*.lha=01;31:*.lz4=01;31:*.lzh=01;31:*.lzma=01;31:*.tlz=01;31:*.txz=01;31:*.tzo=01;31:*.t7z=01;31:*.zip=01;31:*.z=01;31:*.dz=01;31:*.gz=01;31:*.lrz=01;31:*.lz=01;31:*.lzo=01;31:*.xz=01;31:*.zst=01;31:*.tzst=01;31:*.bz2=01;31:*.bz=01;31:*.tbz=01;31:*.tbz2=01;31:*.tz=01;31:*.deb=01;31:*.rpm=01;31:*.jar=01;31:*.war=01;31:*.ear=01;31:*.sar=01;31:*.rar=01;31:*.alz=01;31:*.ace=01;31:*.zoo=01;31:*.cpio=01;31:*.7z=01;31:*.rz=01;31:*.cab=01;31:*.wim=01;31:*.swm=01;31:*.dwm=01;31:*.esd=01;31:*.jpg=01;35:*.jpeg=01;35:*.mjpg=01;35:*.mjpeg=01;35:*.gif=01;35:*.bmp=01;35:*.pbm=01;35:*.pgm=01;35:*.ppm=01;35:*.tga=01;35:*.xbm=01;35:*.xpm=01;35:*.tif=01;35:*.tiff=01;35:*.png=01;35:*.svg=01;35:*.svgz=01;35:*.mng=01;35:*.pcx=01;35:*.mov=01;35:*.mpg=01;35:*.mpeg=01;35:*.m2v=01;35:*.mkv=01;35:*.webm=01;35:*.ogm=01;35:*.mp4=01;35:*.m4v=01;35:*.mp4v=01;35:*.vob=01;35:*.qt=01;35:*.nuv=01;35:*.wmv=01;35:*.asf=01;35:*.rm=01;35:*.rmvb=01;35:*.flc=01;35:*.avi=01;35:*.fli=01;35:*.flv=01;35:*.gl=01;35:*.dl=01;35:*.xcf=01;35:*.xwd=01;35:*.yuv=01;35:*.cgm=01;35:*.emf=01;35:*.ogv=01;35:*.ogx=01;35:*.aac=00;36:*.au=00;36:*.flac=00;36:*.m4a=00;36:*.mid=00;36:*.midi=00;36:*.mka=00;36:*.mp3=00;36:*.mpc=00;36:*.ogg=00;36:*.ra=00;36:*.wav=00;36:*.oga=00;36:*.opus=00;36:*.spx=00;36:*.xspf=00;36:'), ('GNOME_TERMINAL_SERVICE', ':1.799'), ('SSH_AUTH_SOCK', '/run/user/1000/keyring/ssh'), ('AMENT_PREFIX_PATH', '/home/bblaze/ws_ros2/install/warehouse_ros_mongo:/home/bblaze/ws_ros2/install/moveit_ros_visualization:/home/bblaze/ws_ros2/install/moveit_ros_benchmarks:/home/bblaze/ws_ros2/install/moveit_ros_warehouse:/home/bblaze/ws_ros2/install/warehouse_ros:/home/bblaze/ws_ros2/install/ros2_control:/home/bblaze/ws_ros2/install/transmission_interface:/home/bblaze/ws_ros2/install/test_robot_hardware:/home/bblaze/ws_ros2/install/run_moveit_cpp:/home/bblaze/ws_ros2/install/run_move_group:/home/bblaze/ws_ros2/install/moveit_servo:/home/bblaze/ws_ros2/install/moveit_ros_robot_interaction:/home/bblaze/ws_ros2/install/moveit_ros_planning_interface:/home/bblaze/ws_ros2/install/moveit_ros_move_group:/home/bblaze/ws_ros2/install/moveit_planners_ompl:/home/bblaze/ws_ros2/install/moveit_fake_controller_manager:/home/bblaze/ws_ros2/install/moveit_ros_planning:/home/bblaze/ws_ros2/install/moveit_ros_occupancy_map_monitor:/home/bblaze/ws_ros2/install/moveit_kinematics:/home/bblaze/ws_ros2/install/moveit_core:/home/bblaze/ws_ros2/install/fake_joint_driver:/home/bblaze/ws_ros2/install/ros2_controllers:/home/bblaze/ws_ros2/install/moveo_ros2_urdf:/home/bblaze/ws_ros2/install/moveit_resources:/home/bblaze/ws_ros2/install/moveit_resources_pr2_description:/home/bblaze/ws_ros2/install/moveit_resources_panda_moveit_config:/home/bblaze/ws_ros2/install/moveit_resources_panda_description:/home/bblaze/ws_ros2/install/moveit_resources_fanuc_moveit_config:/home/bblaze/ws_ros2/install/moveit_resources_fanuc_description:/home/bblaze/ws_ros2/install/moveit_msgs:/home/bblaze/ws_ros2/install/moveit_common:/home/bblaze/ws_ros2/install/joint_trajectory_controller:/home/bblaze/ws_ros2/install/joint_state_controller:/home/bblaze/ws_ros2/install/diff_drive_controller:/home/bblaze/ws_ros2/install/controller_manager:/home/bblaze/ws_ros2/install/controller_interface:/home/bblaze/ws_ros2/install/hardware_interface:/home/bblaze/ws_ros2/install/geometric_shapes'), ('SHELL', '/bin/bash'), ('QT_ACCESSIBILITY', '1'), ('IDF_PYTHON_ENV_PATH', '/home/bblaze/.espressif/python_env/idf4.1_py3.8_env'), ('GDMSESSION', 'ubuntu'), ('LESSCLOSE', '/usr/bin/lesspipe %s %s'), ('IDF_TOOLS_EXPORT_CMD', '/home/bblaze/esp/esp-idf/export.sh'), ('GPG_AGENT_INFO', '/run/user/1000/gnupg/S.gpg-agent:0:1'), ('GJS_DEBUG_OUTPUT', 'stderr'), ('QT_IM_MODULE', 'ibus'), ('PWD', '/home/bblaze/ws_ros2/src/moveo_ros2/build/moveo_ros2_urdf'), ('XDG_CONFIG_DIRS', '/etc/xdg/xdg-ubuntu:/etc/xdg'), ('XDG_DATA_DIRS', '/usr/share/ubuntu:/usr/local/share/:/usr/share/:/var/lib/snapd/desktop'), ('PYTHONPATH', '/home/bblaze/ws_ros2/install/warehouse_ros_mongo/lib/python3.8/site-packages:/home/bblaze/ws_ros2/install/moveit_msgs/lib/python3.8/site-packages'), ('COLCON', '1'), ('VTE_VERSION', '6003'), ('CMAKE_PREFIX_PATH', '/home/bblaze/ws_ros2/install/warehouse_ros_mongo:/home/bblaze/ws_ros2/install/moveit_ros_visualization:/home/bblaze/ws_ros2/install/moveit_ros_benchmarks:/home/bblaze/ws_ros2/install/moveit_ros_warehouse:/home/bblaze/ws_ros2/install/warehouse_ros:/home/bblaze/ws_ros2/install/ros2_control:/home/bblaze/ws_ros2/install/transmission_interface:/home/bblaze/ws_ros2/install/test_robot_hardware:/home/bblaze/ws_ros2/install/run_moveit_cpp:/home/bblaze/ws_ros2/install/run_move_group:/home/bblaze/ws_ros2/install/moveit_simple_controller_manager:/home/bblaze/ws_ros2/install/moveit_servo:/home/bblaze/ws_ros2/install/moveit_ros_robot_interaction:/home/bblaze/ws_ros2/install/moveit_ros_planning_interface:/home/bblaze/ws_ros2/install/moveit_ros_move_group:/home/bblaze/ws_ros2/install/moveit_planners_ompl:/home/bblaze/ws_ros2/install/moveit_fake_controller_manager:/home/bblaze/ws_ros2/install/moveit_ros_planning:/home/bblaze/ws_ros2/install/moveit_ros_occupancy_map_monitor:/home/bblaze/ws_ros2/install/moveit_kinematics:/home/bblaze/ws_ros2/install/moveit_core:/home/bblaze/ws_ros2/install/srdfdom:/home/bblaze/ws_ros2/install/fake_joint_driver:/home/bblaze/ws_ros2/install/ros2_controllers:/home/bblaze/ws_ros2/install/moveo_ros2_urdf:/home/bblaze/ws_ros2/install/moveo_ros2:/home/bblaze/ws_ros2/install/moveit_resources:/home/bblaze/ws_ros2/install/moveit_resources_pr2_description:/home/bblaze/ws_ros2/install/moveit_resources_panda_moveit_config:/home/bblaze/ws_ros2/install/moveit_resources_panda_description:/home/bblaze/ws_ros2/install/moveit_resources_fanuc_moveit_config:/home/bblaze/ws_ros2/install/moveit_resources_fanuc_description:/home/bblaze/ws_ros2/install/moveit_msgs:/home/bblaze/ws_ros2/install/moveit_common:/home/bblaze/ws_ros2/install/joint_trajectory_controller:/home/bblaze/ws_ros2/install/joint_state_controller:/home/bblaze/ws_ros2/install/diff_drive_controller:/home/bblaze/ws_ros2/install/controller_manager:/home/bblaze/ws_ros2/install/controller_interface:/home/bblaze/ws_ros2/install/hardware_interface:/home/bblaze/ws_ros2/install/geometric_shapes')]), 'shell': False}
[0.039075] (esp32_micros_moveo) StdoutLine: {'line': b'-- Found Git: /usr/bin/git (found version "2.25.1") \n'}
[0.081755] (moveo_ros2_urdf) StdoutLine: {'line': b'-- The C compiler identification is GNU 9.3.0\n'}
[0.099816] (-) TimerEvent: {}
[0.135549] (moveo_ros2_urdf) StdoutLine: {'line': b'-- The CXX compiler identification is GNU 9.3.0\n'}
[0.140729] (moveo_ros2_urdf) StdoutLine: {'line': b'-- Check for working C compiler: /usr/bin/cc\n'}
[0.199933] (-) TimerEvent: {}
[0.212121] (moveo_ros2_urdf) StdoutLine: {'line': b'-- Check for working C compiler: /usr/bin/cc -- works\n'}
[0.212821] (moveo_ros2_urdf) StdoutLine: {'line': b'-- Detecting C compiler ABI info\n'}
[0.284621] (moveo_ros2_urdf) StdoutLine: {'line': b'-- Detecting C compiler ABI info - done\n'}
[0.293869] (moveo_ros2_urdf) StdoutLine: {'line': b'-- Detecting C compile features\n'}
[0.294096] (moveo_ros2_urdf) StdoutLine: {'line': b'-- Detecting C compile features - done\n'}
[0.296207] (moveo_ros2_urdf) StdoutLine: {'line': b'-- Check for working CXX compiler: /usr/bin/c++\n'}
[0.300026] (-) TimerEvent: {}
[0.372325] (moveo_ros2_urdf) StdoutLine: {'line': b'-- Check for working CXX compiler: /usr/bin/c++ -- works\n'}
[0.373236] (moveo_ros2_urdf) StdoutLine: {'line': b'-- Detecting CXX compiler ABI info\n'}
[0.400118] (-) TimerEvent: {}
[0.442132] (esp32_micros_moveo) StderrLine: {'line': b'CMake Warning at /home/bblaze/esp/esp-idf/tools/cmake/git_submodules.cmake:52 (message):\n'}
[0.442443] (esp32_micros_moveo) StderrLine: {'line': b"  Git submodule components/bt/controller/lib is out of date.  Run 'git\n"}
[0.442506] (esp32_micros_moveo) StderrLine: {'line': b"  submodule update --init --recursive' to fix.\n"}
[0.442562] (esp32_micros_moveo) StderrLine: {'line': b'Call Stack (most recent call first):\n'}
[0.442615] (esp32_micros_moveo) StderrLine: {'line': b'  /home/bblaze/esp/esp-idf/tools/cmake/build.cmake:78 (git_submodule_check)\n'}
[0.442666] (esp32_micros_moveo) StderrLine: {'line': b'  /home/bblaze/esp/esp-idf/tools/cmake/build.cmake:160 (__build_get_idf_git_revision)\n'}
[0.442725] (esp32_micros_moveo) StderrLine: {'line': b'  /home/bblaze/esp/esp-idf/tools/cmake/idf.cmake:48 (__build_init)\n'}
[0.442777] (esp32_micros_moveo) StderrLine: {'line': b'  /home/bblaze/esp/esp-idf/tools/cmake/project.cmake:7 (include)\n'}
[0.442828] (esp32_micros_moveo) StderrLine: {'line': b'  CMakeLists.txt:4 (include)\n'}
[0.442884] (esp32_micros_moveo) StderrLine: {'line': b'\n'}
[0.442934] (esp32_micros_moveo) StderrLine: {'line': b'\n'}
[0.442984] (esp32_micros_moveo) StderrLine: {'line': b'CMake Warning at /home/bblaze/esp/esp-idf/tools/cmake/git_submodules.cmake:52 (message):\n'}
[0.443035] (esp32_micros_moveo) StderrLine: {'line': b"  Git submodule components/bt/host/nimble/nimble is out of date.  Run 'git\n"}
[0.443086] (esp32_micros_moveo) StderrLine: {'line': b"  submodule update --init --recursive' to fix.\n"}
[0.443165] (esp32_micros_moveo) StderrLine: {'line': b'Call Stack (most recent call first):\n'}
[0.443217] (esp32_micros_moveo) StderrLine: {'line': b'  /home/bblaze/esp/esp-idf/tools/cmake/build.cmake:78 (git_submodule_check)\n'}
[0.443267] (esp32_micros_moveo) StderrLine: {'line': b'  /home/bblaze/esp/esp-idf/tools/cmake/build.cmake:160 (__build_get_idf_git_revision)\n'}
[0.443316] (esp32_micros_moveo) StderrLine: {'line': b'  /home/bblaze/esp/esp-idf/tools/cmake/idf.cmake:48 (__build_init)\n'}
[0.443368] (esp32_micros_moveo) StderrLine: {'line': b'  /home/bblaze/esp/esp-idf/tools/cmake/project.cmake:7 (include)\n'}
[0.443418] (esp32_micros_moveo) StderrLine: {'line': b'  CMakeLists.txt:4 (include)\n'}
[0.443467] (esp32_micros_moveo) StderrLine: {'line': b'\n'}
[0.443517] (esp32_micros_moveo) StderrLine: {'line': b'\n'}
[0.443566] (esp32_micros_moveo) StderrLine: {'line': b'CMake Warning at /home/bblaze/esp/esp-idf/tools/cmake/git_submodules.cmake:52 (message):\n'}
[0.443616] (esp32_micros_moveo) StderrLine: {'line': b"  Git submodule components/esp_wifi/lib is out of date.  Run 'git submodule\n"}
[0.443666] (esp32_micros_moveo) StderrLine: {'line': b"  update --init --recursive' to fix.\n"}
[0.443715] (esp32_micros_moveo) StderrLine: {'line': b'Call Stack (most recent call first):\n'}
[0.443779] (esp32_micros_moveo) StderrLine: {'line': b'  /home/bblaze/esp/esp-idf/tools/cmake/build.cmake:78 (git_submodule_check)\n'}
[0.443830] (esp32_micros_moveo) StderrLine: {'line': b'  /home/bblaze/esp/esp-idf/tools/cmake/build.cmake:160 (__build_get_idf_git_revision)\n'}
[0.443879] (esp32_micros_moveo) StderrLine: {'line': b'  /home/bblaze/esp/esp-idf/tools/cmake/idf.cmake:48 (__build_init)\n'}
[0.443928] (esp32_micros_moveo) StderrLine: {'line': b'  /home/bblaze/esp/esp-idf/tools/cmake/project.cmake:7 (include)\n'}
[0.443976] (esp32_micros_moveo) StderrLine: {'line': b'  CMakeLists.txt:4 (include)\n'}
[0.444025] (esp32_micros_moveo) StderrLine: {'line': b'\n'}
[0.444074] (esp32_micros_moveo) StderrLine: {'line': b'\n'}
[0.444123] (esp32_micros_moveo) StderrLine: {'line': b'CMake Warning at /home/bblaze/esp/esp-idf/tools/cmake/git_submodules.cmake:52 (message):\n'}
[0.444173] (esp32_micros_moveo) StderrLine: {'line': b"  Git submodule components/esptool_py/esptool is out of date.  Run 'git\n"}
[0.444223] (esp32_micros_moveo) StderrLine: {'line': b"  submodule update --init --recursive' to fix.\n"}
[0.444272] (esp32_micros_moveo) StderrLine: {'line': b'Call Stack (most recent call first):\n'}
[0.444322] (esp32_micros_moveo) StderrLine: {'line': b'  /home/bblaze/esp/esp-idf/tools/cmake/build.cmake:78 (git_submodule_check)\n'}
[0.444372] (esp32_micros_moveo) StderrLine: {'line': b'  /home/bblaze/esp/esp-idf/tools/cmake/build.cmake:160 (__build_get_idf_git_revision)\n'}
[0.444421] (esp32_micros_moveo) StderrLine: {'line': b'  /home/bblaze/esp/esp-idf/tools/cmake/idf.cmake:48 (__build_init)\n'}
[0.444469] (esp32_micros_moveo) StderrLine: {'line': b'  /home/bblaze/esp/esp-idf/tools/cmake/project.cmake:7 (include)\n'}
[0.444518] (esp32_micros_moveo) StderrLine: {'line': b'  CMakeLists.txt:4 (include)\n'}
[0.444566] (esp32_micros_moveo) StderrLine: {'line': b'\n'}
[0.444615] (esp32_micros_moveo) StderrLine: {'line': b'\n'}
[0.444664] (esp32_micros_moveo) StderrLine: {'line': b'CMake Warning at /home/bblaze/esp/esp-idf/tools/cmake/git_submodules.cmake:52 (message):\n'}
[0.444715] (esp32_micros_moveo) StderrLine: {'line': b"  Git submodule components/lwip/lwip is out of date.  Run 'git submodule\n"}
[0.444769] (esp32_micros_moveo) StderrLine: {'line': b"  update --init --recursive' to fix.\n"}
[0.444839] (esp32_micros_moveo) StderrLine: {'line': b'Call Stack (most recent call first):\n'}
[0.444891] (esp32_micros_moveo) StderrLine: {'line': b'  /home/bblaze/esp/esp-idf/tools/cmake/build.cmake:78 (git_submodule_check)\n'}
[0.444943] (esp32_micros_moveo) StderrLine: {'line': b'  /home/bblaze/esp/esp-idf/tools/cmake/build.cmake:160 (__build_get_idf_git_revision)\n'}
[0.444994] (esp32_micros_moveo) StderrLine: {'line': b'  /home/bblaze/esp/esp-idf/tools/cmake/idf.cmake:48 (__build_init)\n'}
[0.445043] (esp32_micros_moveo) StderrLine: {'line': b'  /home/bblaze/esp/esp-idf/tools/cmake/project.cmake:7 (include)\n'}
[0.445727] (esp32_micros_moveo) StderrLine: {'line': b'  CMakeLists.txt:4 (include)\n'}
[0.446371] (esp32_micros_moveo) StderrLine: {'line': b'\n'}
[0.446427] (esp32_micros_moveo) StderrLine: {'line': b'\n'}
[0.446475] (esp32_micros_moveo) StderrLine: {'line': b'CMake Warning at /home/bblaze/esp/esp-idf/tools/cmake/git_submodules.cmake:52 (message):\n'}
[0.446522] (esp32_micros_moveo) StderrLine: {'line': b"  Git submodule components/mbedtls/mbedtls is out of date.  Run 'git\n"}
[0.446573] (esp32_micros_moveo) StderrLine: {'line': b"  submodule update --init --recursive' to fix.\n"}
[0.446620] (esp32_micros_moveo) StderrLine: {'line': b'Call Stack (most recent call first):\n'}
[0.446667] (esp32_micros_moveo) StderrLine: {'line': b'  /home/bblaze/esp/esp-idf/tools/cmake/build.cmake:78 (git_submodule_check)\n'}
[0.446813] (esp32_micros_moveo) StderrLine: {'line': b'  /home/bblaze/esp/esp-idf/tools/cmake/build.cmake:160 (__build_get_idf_git_revision)\n'}
[0.446874] (esp32_micros_moveo) StderrLine: {'line': b'  /home/bblaze/esp/esp-idf/tools/cmake/idf.cmake:48 (__build_init)\n'}
[0.446924] (esp32_micros_moveo) StderrLine: {'line': b'  /home/bblaze/esp/esp-idf/tools/cmake/project.cmake:7 (include)\n'}
[0.446973] (esp32_micros_moveo) StderrLine: {'line': b'  CMakeLists.txt:4 (include)\n'}
[0.447023] (esp32_micros_moveo) StderrLine: {'line': b'\n'}
[0.447072] (esp32_micros_moveo) StderrLine: {'line': b'\n'}
[0.447121] (esp32_micros_moveo) StderrLine: {'line': b'CMake Warning at /home/bblaze/esp/esp-idf/tools/cmake/git_submodules.cmake:52 (message):\n'}
[0.447175] (esp32_micros_moveo) StderrLine: {'line': b"  Git submodule components/mqtt/esp-mqtt is out of date.  Run 'git submodule\n"}
[0.447225] (esp32_micros_moveo) StderrLine: {'line': b"  update --init --recursive' to fix.\n"}
[0.447277] (esp32_micros_moveo) StderrLine: {'line': b'Call Stack (most recent call first):\n'}
[0.447328] (esp32_micros_moveo) StderrLine: {'line': b'  /home/bblaze/esp/esp-idf/tools/cmake/build.cmake:78 (git_submodule_check)\n'}
[0.447378] (esp32_micros_moveo) StderrLine: {'line': b'  /home/bblaze/esp/esp-idf/tools/cmake/build.cmake:160 (__build_get_idf_git_revision)\n'}
[0.447536] (esp32_micros_moveo) StderrLine: {'line': b'  /home/bblaze/esp/esp-idf/tools/cmake/idf.cmake:48 (__build_init)\n'}
[0.447627] (esp32_micros_moveo) StderrLine: {'line': b'  /home/bblaze/esp/esp-idf/tools/cmake/project.cmake:7 (include)\n'}
[0.448448] (esp32_micros_moveo) StderrLine: {'line': b'  CMakeLists.txt:4 (include)\n'}
[0.448520] (esp32_micros_moveo) StderrLine: {'line': b'\n'}
[0.448572] (esp32_micros_moveo) StderrLine: {'line': b'\n'}
[0.448621] (esp32_micros_moveo) StdoutLine: {'line': b'-- IDF_TARGET not set, using default target: esp32\n'}
[0.454036] (moveo_ros2_urdf) StdoutLine: {'line': b'-- Detecting CXX compiler ABI info - done\n'}
[0.463775] (moveo_ros2_urdf) StdoutLine: {'line': b'-- Detecting CXX compile features\n'}
[0.464202] (moveo_ros2_urdf) StdoutLine: {'line': b'-- Detecting CXX compile features - done\n'}
[0.475975] (moveo_ros2_urdf) StderrLine: {'line': b'CMake Error at CMakeLists.txt:19 (find_package):\n'}
[0.476152] (moveo_ros2_urdf) StderrLine: {'line': b'  By not providing "Findament_cmake.cmake" in CMAKE_MODULE_PATH this project\n'}
[0.476218] (moveo_ros2_urdf) StderrLine: {'line': b'  has asked CMake to find a package configuration file provided by\n'}
[0.476380] (moveo_ros2_urdf) StderrLine: {'line': b'  "ament_cmake", but CMake did not find one.\n'}
[0.476438] (moveo_ros2_urdf) StderrLine: {'line': b'\n'}
[0.476491] (moveo_ros2_urdf) StderrLine: {'line': b'  Could not find a package configuration file provided by "ament_cmake" with\n'}
[0.476543] (moveo_ros2_urdf) StderrLine: {'line': b'  any of the following names:\n'}
[0.476593] (moveo_ros2_urdf) StderrLine: {'line': b'\n'}
[0.476642] (moveo_ros2_urdf) StderrLine: {'line': b'    ament_cmakeConfig.cmake\n'}
[0.476692] (moveo_ros2_urdf) StderrLine: {'line': b'    ament_cmake-config.cmake\n'}
[0.476741] (moveo_ros2_urdf) StderrLine: {'line': b'\n'}
[0.476788] (moveo_ros2_urdf) StderrLine: {'line': b'  Add the installation prefix of "ament_cmake" to CMAKE_PREFIX_PATH or set\n'}
[0.476837] (moveo_ros2_urdf) StderrLine: {'line': b'  "ament_cmake_DIR" to a directory containing one of the above files.  If\n'}
[0.476886] (moveo_ros2_urdf) StderrLine: {'line': b'  "ament_cmake" provides a separate development package or SDK, be sure it\n'}
[0.476935] (moveo_ros2_urdf) StderrLine: {'line': b'  has been installed.\n'}
[0.476985] (moveo_ros2_urdf) StderrLine: {'line': b'\n'}
[0.477033] (moveo_ros2_urdf) StderrLine: {'line': b'\n'}
[0.477082] (moveo_ros2_urdf) StdoutLine: {'line': b'-- Configuring incomplete, errors occurred!\n'}
[0.477138] (moveo_ros2_urdf) StdoutLine: {'line': b'See also "/home/bblaze/ws_ros2/src/moveo_ros2/build/moveo_ros2_urdf/CMakeFiles/CMakeOutput.log".\n'}
[0.479323] (moveo_ros2_urdf) CommandEnded: {'returncode': 1}
[0.481083] (esp32_micros_moveo) StdoutLine: {'line': b'-- The C compiler identification is GNU 8.4.0\n'}
[0.500238] (-) TimerEvent: {}
[0.501098] (moveo_ros2_urdf) JobEnded: {'identifier': 'moveo_ros2_urdf', 'rc': 1}
[0.514410] (esp32_micros_moveo) StdoutLine: {'line': b'-- The CXX compiler identification is GNU 8.4.0\n'}
[0.522764] (esp32_micros_moveo) StdoutLine: {'line': b'-- The ASM compiler identification is GNU\n'}
[0.525528] (esp32_micros_moveo) StdoutLine: {'line': b'-- Found assembler: /home/bblaze/.espressif/tools/xtensa-esp32-elf/esp-2020r3-8.4.0/xtensa-esp32-elf/bin/xtensa-esp32-elf-gcc\n'}
[0.528134] (esp32_micros_moveo) StdoutLine: {'line': b'-- Check for working C compiler: /home/bblaze/.espressif/tools/xtensa-esp32-elf/esp-2020r3-8.4.0/xtensa-esp32-elf/bin/xtensa-esp32-elf-gcc\n'}
[0.584868] (esp32_micros_moveo) StdoutLine: {'line': b'-- Check for working C compiler: /home/bblaze/.espressif/tools/xtensa-esp32-elf/esp-2020r3-8.4.0/xtensa-esp32-elf/bin/xtensa-esp32-elf-gcc -- works\n'}
[0.585624] (esp32_micros_moveo) StdoutLine: {'line': b'-- Detecting C compiler ABI info\n'}
[0.600354] (-) TimerEvent: {}
[0.645982] (esp32_micros_moveo) StdoutLine: {'line': b'-- Detecting C compiler ABI info - done\n'}
[0.654456] (esp32_micros_moveo) StdoutLine: {'line': b'-- Detecting C compile features\n'}
[0.654619] (esp32_micros_moveo) StdoutLine: {'line': b'-- Detecting C compile features - done\n'}
[0.656507] (esp32_micros_moveo) StdoutLine: {'line': b'-- Check for working CXX compiler: /home/bblaze/.espressif/tools/xtensa-esp32-elf/esp-2020r3-8.4.0/xtensa-esp32-elf/bin/xtensa-esp32-elf-g++\n'}
[0.700441] (-) TimerEvent: {}
[0.713926] (esp32_micros_moveo) StdoutLine: {'line': b'-- Check for working CXX compiler: /home/bblaze/.espressif/tools/xtensa-esp32-elf/esp-2020r3-8.4.0/xtensa-esp32-elf/bin/xtensa-esp32-elf-g++ -- works\n'}
[0.714868] (esp32_micros_moveo) StdoutLine: {'line': b'-- Detecting CXX compiler ABI info\n'}
[0.773340] (esp32_micros_moveo) StdoutLine: {'line': b'-- Detecting CXX compiler ABI info - done\n'}
[0.782745] (esp32_micros_moveo) StdoutLine: {'line': b'-- Detecting CXX compile features\n'}
[0.783175] (esp32_micros_moveo) StdoutLine: {'line': b'-- Detecting CXX compile features - done\n'}
[0.789497] (esp32_micros_moveo) StdoutLine: {'line': b'-- Project version: dd42e05-dirty\n'}
[0.789620] (esp32_micros_moveo) StdoutLine: {'line': b'-- Building ESP-IDF components for target esp32\n'}
[0.790394] (esp32_micros_moveo) StdoutLine: {'line': b'-- Checking Python dependencies...\n'}
[0.800543] (-) TimerEvent: {}
[0.887179] (esp32_micros_moveo) StdoutLine: {'line': b'Python requirements from /home/bblaze/esp/esp-idf/requirements.txt are satisfied.\n'}
[0.900632] (-) TimerEvent: {}
[1.000895] (-) TimerEvent: {}
[1.101215] (-) TimerEvent: {}
[1.201461] (-) TimerEvent: {}
[1.301709] (-) TimerEvent: {}
[1.332048] (esp32_micros_moveo) StdoutLine: {'line': b'-- Project sdkconfig file /home/bblaze/ws_ros2/src/moveo_ros2/esp32_microros_moveo/sdkconfig\n'}
[1.401820] (-) TimerEvent: {}
[1.464883] (esp32_micros_moveo) StdoutLine: {'line': b'Loading defaults file /home/bblaze/ws_ros2/src/moveo_ros2/esp32_microros_moveo/sdkconfig.defaults...\n'}
[1.501939] (-) TimerEvent: {}
[1.599279] (esp32_micros_moveo) StdoutLine: {'line': b'-- Found PythonInterp: /home/bblaze/.espressif/python_env/idf4.1_py3.8_env/bin/python (found version "3.8.5") \n'}
[1.602031] (-) TimerEvent: {}
[1.606295] (esp32_micros_moveo) StdoutLine: {'line': b'-- Found Perl: /usr/bin/perl (found version "5.30.0") \n'}
[1.645948] (esp32_micros_moveo) StdoutLine: {'line': b'-- Adding linker script /home/bblaze/ws_ros2/src/moveo_ros2/build/esp32_micros_moveo/esp-idf/esp32/esp32_out.ld\n'}
[1.646130] (esp32_micros_moveo) StdoutLine: {'line': b'-- Adding linker script /home/bblaze/esp/esp-idf/components/esp32/ld/esp32.project.ld.in\n'}
[1.646545] (esp32_micros_moveo) StdoutLine: {'line': b'-- Adding linker script /home/bblaze/esp/esp-idf/components/esp32/ld/esp32.peripherals.ld\n'}
[1.653523] (esp32_micros_moveo) StdoutLine: {'line': b'-- Adding linker script /home/bblaze/esp/esp-idf/components/esp_rom/esp32/ld/esp32.rom.newlib-time.ld\n'}
[1.653737] (esp32_micros_moveo) StdoutLine: {'line': b'-- Adding linker script /home/bblaze/esp/esp-idf/components/esp_rom/esp32/ld/esp32.rom.ld\n'}
[1.653891] (esp32_micros_moveo) StdoutLine: {'line': b'-- Adding linker script /home/bblaze/esp/esp-idf/components/esp_rom/esp32/ld/esp32.rom.libgcc.ld\n'}
[1.653980] (esp32_micros_moveo) StdoutLine: {'line': b'-- Adding linker script /home/bblaze/esp/esp-idf/components/esp_rom/esp32/ld/esp32.rom.newlib-data.ld\n'}
[1.654037] (esp32_micros_moveo) StdoutLine: {'line': b'-- Adding linker script /home/bblaze/esp/esp-idf/components/esp_rom/esp32/ld/esp32.rom.syscalls.ld\n'}
[1.654089] (esp32_micros_moveo) StdoutLine: {'line': b'-- Adding linker script /home/bblaze/esp/esp-idf/components/esp_rom/esp32/ld/esp32.rom.newlib-funcs.ld\n'}
[1.702123] (-) TimerEvent: {}
[1.802363] (-) TimerEvent: {}
[1.880465] (esp32_micros_moveo) StdoutLine: {'line': b'-- Components: app_trace app_update asio bootloader bootloader_support bt cbor coap console cxx driver efuse esp-tls esp32 esp_adc_cal esp_common esp_eth esp_event esp_gdbstub esp_http_client esp_http_server esp_https_ota esp_https_server esp_local_ctrl esp_netif esp_ringbuf esp_rom esp_serial_slave_link esp_websocket_client esp_wifi espcoredump esptool_py expat fatfs freemodbus freertos heap idf_test jsmn json libsodium log lwip main mbedtls mdns micro_ros_espidf_component mqtt newlib nghttp nvs_flash openssl partition_table perfmon protobuf-c protocomm pthread sdmmc soc spi_flash spiffs tcp_transport tcpip_adapter ulp unity vfs wear_levelling wifi_provisioning wpa_supplicant xtensa\n'}
[1.880640] (esp32_micros_moveo) StdoutLine: {'line': b'-- Component paths: /home/bblaze/esp/esp-idf/components/app_trace /home/bblaze/esp/esp-idf/components/app_update /home/bblaze/esp/esp-idf/components/asio /home/bblaze/esp/esp-idf/components/bootloader /home/bblaze/esp/esp-idf/components/bootloader_support /home/bblaze/esp/esp-idf/components/bt /home/bblaze/esp/esp-idf/components/cbor /home/bblaze/esp/esp-idf/components/coap /home/bblaze/esp/esp-idf/components/console /home/bblaze/esp/esp-idf/components/cxx /home/bblaze/esp/esp-idf/components/driver /home/bblaze/esp/esp-idf/components/efuse /home/bblaze/esp/esp-idf/components/esp-tls /home/bblaze/esp/esp-idf/components/esp32 /home/bblaze/esp/esp-idf/components/esp_adc_cal /home/bblaze/esp/esp-idf/components/esp_common /home/bblaze/esp/esp-idf/components/esp_eth /home/bblaze/esp/esp-idf/components/esp_event /home/bblaze/esp/esp-idf/components/esp_gdbstub /home/bblaze/esp/esp-idf/components/esp_http_client /home/bblaze/esp/esp-idf/components/esp_http_server /home/bblaze/esp/esp-idf/components/esp_https_ota /home/bblaze/esp/esp-idf/components/esp_https_server /home/bblaze/esp/esp-idf/components/esp_local_ctrl /home/bblaze/esp/esp-idf/components/esp_netif /home/bblaze/esp/esp-idf/components/esp_ringbuf /home/bblaze/esp/esp-idf/components/esp_rom /home/bblaze/esp/esp-idf/components/esp_serial_slave_link /home/bblaze/esp/esp-idf/components/esp_websocket_client /home/bblaze/esp/esp-idf/components/esp_wifi /home/bblaze/esp/esp-idf/components/espcoredump /home/bblaze/esp/esp-idf/components/esptool_py /home/bblaze/esp/esp-idf/components/expat /home/bblaze/esp/esp-idf/components/fatfs /home/bblaze/esp/esp-idf/components/freemodbus /home/bblaze/esp/esp-idf/components/freertos /home/bblaze/esp/esp-idf/components/heap /home/bblaze/esp/esp-idf/components/idf_test /home/bblaze/esp/esp-idf/components/jsmn /home/bblaze/esp/esp-idf/components/json /home/bblaze/esp/esp-idf/components/libsodium /home/bblaze/esp/esp-idf/components/log /home/bblaze/esp/esp-idf/components/lwip /home/bblaze/ws_ros2/src/moveo_ros2/esp32_microros_moveo/main /home/bblaze/esp/esp-idf/components/mbedtls /home/bblaze/esp/esp-idf/components/mdns /home/bblaze/ws_ros2/src/moveo_ros2/esp32_microros_moveo/components/micro_ros_espidf_component /home/bblaze/esp/esp-idf/components/mqtt /home/bblaze/esp/esp-idf/components/newlib /home/bblaze/esp/esp-idf/components/nghttp /home/bblaze/esp/esp-idf/components/nvs_flash /home/bblaze/esp/esp-idf/components/openssl /home/bblaze/esp/esp-idf/components/partition_table /home/bblaze/esp/esp-idf/components/perfmon /home/bblaze/esp/esp-idf/components/protobuf-c /home/bblaze/esp/esp-idf/components/protocomm /home/bblaze/esp/esp-idf/components/pthread /home/bblaze/esp/esp-idf/components/sdmmc /home/bblaze/esp/esp-idf/components/soc /home/bblaze/esp/esp-idf/components/spi_flash /home/bblaze/esp/esp-idf/components/spiffs /home/bblaze/esp/esp-idf/components/tcp_transport /home/bblaze/esp/esp-idf/components/tcpip_adapter /home/bblaze/esp/esp-idf/components/ulp /home/bblaze/esp/esp-idf/components/unity /home/bblaze/esp/esp-idf/components/vfs /home/bblaze/esp/esp-idf/components/wear_levelling /home/bblaze/esp/esp-idf/components/wifi_provisioning /home/bblaze/esp/esp-idf/components/wpa_supplicant /home/bblaze/esp/esp-idf/components/xtensa\n'}
[1.893327] (esp32_micros_moveo) StdoutLine: {'line': b'-- Configuring done\n'}
[1.902513] (-) TimerEvent: {}
[2.002741] (-) TimerEvent: {}
[2.102977] (-) TimerEvent: {}
[2.203226] (-) TimerEvent: {}
[2.279156] (esp32_micros_moveo) StdoutLine: {'line': b'-- Generating done\n'}
[2.290303] (esp32_micros_moveo) StdoutLine: {'line': b'-- Build files have been written to: /home/bblaze/ws_ros2/src/moveo_ros2/build/esp32_micros_moveo\n'}
[2.303349] (-) TimerEvent: {}
[2.323034] (esp32_micros_moveo) JobEnded: {'identifier': 'esp32_micros_moveo', 'rc': 'SIGINT'}
[2.333645] (-) EventReactorShutdown: {}
